{
  'eslint': '^5.16.0 || ^6.1.0',
  'eslint-plugin-import': '^2.18.2',
  'eslint-plugin-jsx-a11y': '^6.2.3',
  'eslint-plugin-react': '^7.14.3',
  'eslint-plugin-react-hooks': '^1.7.0'
}

"eslint": "^5.16.0 || ^6.7.2",
"eslint-plugin-import": "^2.18.2",
"eslint-plugin-jsx-a11y": "^6.2.3",
"eslint-plugin-react": "^7.15.1",
"eslint-plugin-react-hooks": "^1.7.0"

eslint eslint-plugin-import eslint-plugin-jsx-a11y eslint-plugin-react eslint-plugin-react-hooks